4 Analysis | R Training Manual
…
We can add multiple variables to group_by

If we add region and country to the group_by command, sort from highest to lowest, we can see which countries reported the most confirmed COVID-19 cases

analysis_dataset %>% 
  group_by(region, country) %>% 
    summarise(total_covid_cases=sum(cases, na.rm=TRUE)) %>% 
  arrange(-total_covid_cases)

## `summarise()` has grouped output by 'region'. You can override using the `.groups` argument.

## # A tibble: 53 x 3
## # Groups:   region [5]
##    region          country      total_covid_cases
##    <chr>           <chr>                    <dbl>
##  1 Southern Africa South Africa           1584064
##  2 Northern Africa Morocco                 511856
##  3 Northern Africa Tunisia                 311743
##  4 Eastern Africa  Ethiopia                258353
##  5 Northern Africa Egypt                   228584
##  6 Northern Africa Libya                   178335
##  7 Western Africa  Nigeria                 165199
##  8 Eastern Africa  Kenya                   160559
##  9 Northern Africa Algeria                 122522
## 10 Western Africa  Ghana                    92683
## # … with 43 more rows
…
