3 Session 2: Data management | R Training Manual
…
## [1] NA

3.2 Working with data

In the africa_covid_cases object, there are 53 obs (observations) of 492 variables.

So what does this mean?

We can look at our data to get more information

africa_covid_cases

## # A tibble: 53 x 492
##    ISO   COUNTRY_NAME     AFRICAN_REGION `43831` `43832` `43833` `43834` `43835`
##    <chr> <chr>            <chr>            <dbl>   <dbl>   <dbl>   <dbl>   <dbl>
##  1 DZA   Algeria          Northern Afri…       0       0       0       0       0
##  2 AGO   Angola           Southern Afri…       0       0       0       0       0
##  3 BEN   Benin            Western Africa       0       0       0       0       0
##  4 BWA   Botswana         Southern Afri…       0       0       0       0       0
##  5 BFA   Burkina Faso     Western Africa       0       0       0       0       0
##  6 BDI   Burundi          Central Africa       0       0       0       0       0
##  7 CMR   Cameroon         Central Africa       0       0       0       0       0
##  8 CAR   Central African… Central Africa       0       0       0       0       0
##  9 TCD   Chad             Central Africa       0       0       0       0       0
## 10 COM   Comoros          Eastern Africa       0       0       0       0       0
## # … with 43 more rows, and 484 more variables: 43836 <dbl>, 43837 <dbl>,
## #   43838 <dbl>, 43839 <dbl>, 43840 <dbl>, 43841 <dbl>, 43842 <dbl>,
## #   43843 <dbl>, 43844 <dbl>, 43845 <dbl>, 43846 <dbl>, 43847 <dbl>,
## #   43848 <dbl>, 43849 <dbl>, 43850 <dbl>, 43851 <dbl>, 43852 <dbl>,
## #   43853 <dbl>, 43854 <dbl>, 43855 <dbl>, 43856 <dbl>, 43857 <dbl>,
## #   43858 <dbl>, 43859 <dbl>, 43860 <dbl>, 43861 <dbl>, 43862 <dbl>,
## #   43863 <dbl>, 43864 <dbl>, 43865 <dbl>, 43866 <dbl>, 43867 <dbl>,
## #   43868 <dbl>, 43869 <dbl>, 43870 <dbl>, 43871 <dbl>, 43872 <dbl>,
## #   43873 <dbl>, 43874 <dbl>, 43875 <dbl>, 43876 <dbl>, 43877 <dbl>,
…
